GDP component and proportion comparison · Portfolio website for Sammy C Chen
…
Secondly, recall that GDP is the sum of Household Expenditure (Consumption C), Gross Capital Formation (business investment I), Government Expenditure (G) and Net Exports (exports - imports). Even though there is an indicator Gross Domestic Product (GDP) in your dataframe, I would like you to calculate it given its components discussed above.

GDP_manual_cal <- tidy_GDP_data %>% 
                   filter(IndicatorName %in% c("Gross capital formation", "Exports", "Government expenditure", "Household expenditure", "Imports", "Gross Domestic Product (GDP)")) %>% 
#use pivot_wider for further column calculations
                   pivot_wider(names_from = "IndicatorName",
                               values_from = "value") %>% 
                   mutate(`Net Exports` = Exports - Imports,
                           GDP_calculated = `Household expenditure`+`Government expenditure`+`Gross capital formation`+`Net Exports`,
                           `% difference` = round(100 - 100*GDP_calculated/`Gross Domestic Product (GDP)`, digits = 2)) 
                   options(scipen = 200)

GDP_manual_cal

## # A tibble: 10,560 x 12
##    CountryID Country year  `Household expe~ `Government exp~ `Gross capital ~
##        <dbl> <chr>   <chr>            <dbl>            <dbl>            <dbl>
##  1         4 Afghan~ 1970              5.07            0.372            0.985
##  2         4 Afghan~ 1971              4.84            0.382            1.05 
##  3         4 Afghan~ 1972              4.70            0.402            0.919
##  4         4 Afghan~ 1973              5.21            0.421            0.919
##  5         4 Afghan~ 1974              5.59            0.431            1.18 
##  6         4 Afghan~ 1975              5.65            0.598            1.37 
##  7         4 Afghan~ 1976              5.68            0.627            2.03 
##  8         4 Afghan~ 1977              6.15            0.676            1.92 
##  9         4 Afghan~ 1978              6.30            0.725            2.22 
## 10         4 Afghan~ 1979              6.15            0.708            2.07 
## # ... with 10,550 more rows, and 6 more variables: Exports <dbl>,
## #   Imports <dbl>, `Gross Domestic Product (GDP)` <dbl>, `Net Exports` <dbl>,
## #   GDP_calculated <dbl>, `% difference` <dbl>
…
